{
    "kind": "Template",
    "apiVersion": "v1",
    "metadata": {
        "name": "my-endpoint-svc-template",
        "creationTimestamp": null
    },
    "objects": [
        {
            "kind": "Service",
            "apiVersion": "v1",
            "metadata": {
                "name": "my-endpoint",
                "creationTimestamp": null,
                "labels": {
                    "app": "my-endpoint",
                    "zone": "${{ZONE}}"
                }
            },
            "spec": {
                "ports": [
                    {
                        "protocol": "TCP",
                        "port": "${{MY_PORT}}",
                        "targetPort": "${{MY_PORT}}"
                    }
                ],
                "type": "ClusterIP",
                "sessionAffinity": "None"
            },
            "status": {
                "loadBalancer": {}
            }
        }
    ],
    "parameters": [
        {
            "name": "MY_PORT",
            "description": "my endpoint port and targetPort",
            "value": "1501",
            "required": true 
        },
        {
            "name": "ZONE",
            "description": "Zone that this service resides in",
            "value": "local",
            "required": true 
        }
      ]    
}
